<svg xmlns="http://www.w3.org/2000/svg" width="100%" height="100%" viewBox="0 0 1440 300">
    <defs>
        <linearGradient id="gradient" x1="0%" y1="50%" x2="100%" y2="50%">
            <stop offset="5%" stop-color="#e9fafd"></stop>
            <stop offset="100%" stop-color="#E6FFFA"></stop>
        </linearGradient>
    </defs>
    <path fill="url(#gradient)" fill-opacity="1" d="M0,256L80,245.3C160,235,320,213,480,208C640,203,800,213,960,186.7C1120,160,1280,96,1360,64L1440,32L1440,0L1360,0C1280,0,1120,0,960,0C800,0,640,0,480,0C320,0,160,0,80,0L0,0Z"></path>
</svg>